%YAML 1.1
%TAG !u! tag:unity3d.com,2011:
--- !u!1045 &1
EditorBuildSettings:
  m_ObjectHideFlags: 0
  serializedVersion: 2
  m_Scenes:
  - enabled: 1
    path: Assets/Scenes/Menu.unity
    guid: 72b86cb03b9122f419e5b7345f52b4a7
  - enabled: 1
    path: Assets/Scenes/pacman.unity
    guid: 9fc0d4010bbf28b4594072e72b8655ab
  m_configObjects: {}
